%YAML 1.1
%TAG !u! tag:unity3d.com,2011:
--- !u!114 &11400000
MonoBehaviour:
  m_ObjectHideFlags: 0
  m_CorrespondingSourceObject: {fileID: 0}
  m_PrefabInstance: {fileID: 0}
  m_PrefabAsset: {fileID: 0}
  m_GameObject: {fileID: 0}
  m_Enabled: 1
  m_EditorHideFlags: 0
  m_Script: {fileID: 11500000, guid: 72c89c5dcf7ab2644843398b9395a4dd, type: 3}
  m_Name: Settings
  m_EditorClassIdentifier: 
  TownSize: {x: 40, y: 40}
  buildings:
  - {fileID: 11400000, guid: 6dea952b069f2f14d972e99e1ff723a7, type: 2}
  - {fileID: 11400000, guid: 56c8a4325417cc042bd370c3c633c94c, type: 2}
  - {fileID: 11400000, guid: 816278f84e6bdaf42ba3239405418069, type: 2}
  - {fileID: 11400000, guid: cc494749c4b67954a9b797cbe43acc40, type: 2}
  resStart:
  - resType: 0
    resValue: 150
  - resType: 1
    resValue: 150
  resMax:
  - resType: 0
    resValue: 150
  - resType: 1
    resValue: 150
  IndicatorUpdateTime: 1
